﻿  Main.cpp
  Assignment 3 - Pointers.vcxproj -> c:\users\ryan appel\documents\visual studio 2017\Projects\Assignment 3 - Pointers\Debug\Assignment 3 - Pointers.exe
  Assignment 3 - Pointers.vcxproj -> c:\users\ryan appel\documents\visual studio 2017\Projects\Assignment 3 - Pointers\Debug\Assignment 3 - Pointers.pdb (Partial PDB)
